^C:\USERS\АЛИ\DOCUMENTS\VISUAL STUDIO 2010\PROJECTS\MASH_GRAPH_LAB3\MASH_GRAPH_LAB3\FORM1.RESX|C:\USERS\АЛИ\DOCUMENTS\VISUAL STUDIO 2010\PROJECTS\MASH_GRAPH_LAB3\MASH_GRAPH_LAB3\PROPERTIES\RESOURCES.RESX
C:\USERS\али\DOCUMENTS\VISUAL STUDIO 2010\PROJECTS\MASH_GRAPH_LAB3\MASH_GRAPH_LAB3\OBJ\X86\DEBUG\MASH_GRAPH_LAB3.FORM1.RESOURCES
C:\USERS\али\DOCUMENTS\VISUAL STUDIO 2010\PROJECTS\MASH_GRAPH_LAB3\MASH_GRAPH_LAB3\OBJ\X86\DEBUG\MASH_GRAPH_LAB3.PROPERTIES.RESOURCES.RESOURCES
^G:\4_СЕМ\МАШГРАФ\MASH_GRAPH_LAB3\MASH_GRAPH_LAB3\FORM1.RESX|G:\4_СЕМ\МАШГРАФ\MASH_GRAPH_LAB3\MASH_GRAPH_LAB3\PROPERTIES\RESOURCES.RESX
G:\4_сем\МашГраф\MASH_GRAPH_LAB3\MASH_GRAPH_LAB3\OBJ\X86\DEBUG\MASH_GRAPH_LAB3.FORM1.RESOURCES
G:\4_сем\МашГраф\MASH_GRAPH_LAB3\MASH_GRAPH_LAB3\OBJ\X86\DEBUG\MASH_GRAPH_LAB3.PROPERTIES.RESOURCES.RESOURCES
^F:\4_СЕМ\МАШГРАФ\MASH_GRAPH_LAB3\MASH_GRAPH_LAB3\FORM1.RESX|F:\4_СЕМ\МАШГРАФ\MASH_GRAPH_LAB3\MASH_GRAPH_LAB3\PROPERTIES\RESOURCES.RESX
F:\4_сем\МашГраф\MASH_GRAPH_LAB3\MASH_GRAPH_LAB3\OBJ\X86\DEBUG\MASH_GRAPH_LAB3.FORM1.RESOURCES
F:\4_сем\МашГраф\MASH_GRAPH_LAB3\MASH_GRAPH_LAB3\OBJ\X86\DEBUG\MASH_GRAPH_LAB3.PROPERTIES.RESOURCES.RESOURCES
^P:\4_СЕМ\МАШГРАФ\MASH_GRAPH_LAB3\MASH_GRAPH_LAB3\FORM1.RESX|P:\4_СЕМ\МАШГРАФ\MASH_GRAPH_LAB3\MASH_GRAPH_LAB3\PROPERTIES\RESOURCES.RESX
P:\4_сем\МашГраф\MASH_GRAPH_LAB3\MASH_GRAPH_LAB3\OBJ\X86\DEBUG\MASH_GRAPH_LAB3.FORM1.RESOURCES
P:\4_сем\МашГраф\MASH_GRAPH_LAB3\MASH_GRAPH_LAB3\OBJ\X86\DEBUG\MASH_GRAPH_LAB3.PROPERTIES.RESOURCES.RESOURCES
^F:\4_СЕМ\МАШГРАФ\MASH_GRAPH_LAB4\MASH_GRAPH_LAB3\FORM1.RESX|F:\4_СЕМ\МАШГРАФ\MASH_GRAPH_LAB4\MASH_GRAPH_LAB3\FORM2.RESX|F:\4_СЕМ\МАШГРАФ\MASH_GRAPH_LAB4\MASH_GRAPH_LAB3\PROPERTIES\RESOURCES.RESX
F:\4_сем\МашГраф\MASH_GRAPH_LAB4\MASH_GRAPH_LAB3\OBJ\X86\DEBUG\MASH_GRAPH_LAB3.FORM1.RESOURCES
F:\4_сем\МашГраф\MASH_GRAPH_LAB4\MASH_GRAPH_LAB3\OBJ\X86\DEBUG\MASH_GRAPH_LAB3.FORM2.RESOURCES
F:\4_сем\МашГраф\MASH_GRAPH_LAB4\MASH_GRAPH_LAB3\OBJ\X86\DEBUG\MASH_GRAPH_LAB3.PROPERTIES.RESOURCES.RESOURCES
